ggplot
…
]

.pull-right45[

```r
basel_avg_long
```

```
# A tibble: 34 × 3
    year statistic     income
   <dbl> <chr>          <dbl>
 1  2001 income_mean   63027.
 2  2001 income_median 49516.
 3  2002 income_mean   63555.
 4  2002 income_median 50066.
 5  2003 income_mean   63083.
 6  2003 income_median 49717.
 7  2004 income_mean   62298.
 8  2004 income_median 49467.
 9  2005 income_mean   63133.
10  2005 income_median 49192.
# ℹ 24 more rows
```
…
