Intro 2 R
…
]

.pull-right45[

```r
# Read in taxation
basel <- read_csv("1_Data/taxation.csv")

basel
```

```
## # A tibble: 357 × 10
##    year quarter    quarter_no     N
##   <dbl> <chr>           <dbl> <dbl>
## 1  2001 Altstadt …          1  1673
## 2  2001 Vorstädte           2  3204
## 3  2001 Am Ring             3  6579
## 4  2001 Breite              4  5433
## 5  2001 St. Alban           5  6179
## # … with 352 more rows, and 6 more
## #   variables: income_mean <dbl>,
## #   income_median <dbl>,
## #   income_gini <dbl>,
## #   wealth_mean <dbl>,
## #   wealth_median <dbl>,
## #   wealth_gini <dbl>
```
…
]

.pull-right45[

```r
# Read in taxation
basel <- read_csv("1_Data/taxation.csv")

basel
```

```
## # A tibble: 357 × 10
##    year quarter    quarter_no     N
##   <dbl> <chr>           <dbl> <dbl>
## 1  2001 Altstadt …          1  1673
## 2  2001 Vorstädte           2  3204
## 3  2001 Am Ring             3  6579
## 4  2001 Breite              4  5433
## 5  2001 St. Alban           5  6179
## # … with 352 more rows, and 6 more
## #   variables: income_mean <dbl>,
## #   income_median <dbl>,
## #   income_gini <dbl>,
## #   wealth_mean <dbl>,
## #   wealth_median <dbl>,
## #   wealth_gini <dbl>
```
…
]

.pull-right5[

```r
basel %>%
  
  # Select columns
  select(year, quarter, income_mean)
```

```
## # A tibble: 357 × 3
##    year quarter         income_mean
##   <dbl> <chr>                 <dbl>
## 1  2001 Altstadt Gross…       87776
## 2  2001 Vorstädte             84109
## 3  2001 Am Ring               62582
## 4  2001 Breite                52039
## 5  2001 St. Alban             89956
## 6  2001 Gundeldingen          51229
## 7  2001 Bruderholz            96124
## 8  2001 Bachletten            70348
## # … with 349 more rows
```
…
]

.pull-right5[

```r
basel %>%
    select(year, quarter, income_mean) %>%

  # Select rows 20 to 30
  slice(20:30)
```

```
## # A tibble: 11 × 3
##    year quarter         income_mean
##   <dbl> <chr>                 <dbl>
## 1  2001 Riehen                84857
## 2  2001 Bettingen             83803
## 3  2002 Altstadt Gross…       89525
## 4  2002 Vorstädte             86350
## 5  2002 Am Ring               64797
## 6  2002 Breite                52483
## 7  2002 St. Alban             85906
## 8  2002 Gundeldingen          52035
## # … with 3 more rows
```
…
.pull-right5[

```r
basel %>%
    select(year, quarter, income_mean) %>%

  # Select rows rows where year is 2017
  filter(year == 2017)
```

```
## # A tibble: 21 × 3
##    year quarter         income_mean
##   <dbl> <chr>                 <dbl>
## 1  2017 Altstadt Gross…       97111
## 2  2017 Vorstädte            103714
## 3  2017 Am Ring               78761
## 4  2017 Breite                56888
## 5  2017 St. Alban            102457
## 6  2017 Gundeldingen          56544
## 7  2017 Bruderholz           105973
## 8  2017 Bachletten            81580
## # … with 13 more rows
```
…
]

.pull-right5[

```r
basel %>%
  select(year, quarter, income_mean) %>%
  filter(year == 2017) %>% 
  
  # Sort by income
  arrange(income_mean)
```

```
## # A tibble: 21 × 3
##    year quarter       income_mean
##   <dbl> <chr>               <dbl>
## 1  2017 Klybeck             41569
## 2  2017 Kleinhüningen       45664
## 3  2017 Clara               50680
## 4  2017 Matthäus            50786
## 5  2017 Iselin              51600
## 6  2017 St. Johann          52890
## 7  2017 Rosental            54543
## 8  2017 Gundeldingen        56544
## # … with 13 more rows
```
…
.pull-right5[

```r
basel %>%
  
  # Calculate averages for all years
  group_by(year) %>% 
  summarize(
    income = mean(income_mean),
    wealth = mean(wealth_mean))
```

```
## # A tibble: 17 × 3
##    year income  wealth
##   <dbl>  <dbl>   <dbl>
## 1  2001 63027. 347770.
## 2  2002 63555. 367401.
## 3  2003 63083. 373278.
## 4  2004 62298. 353968.
## 5  2005 63133. 441864.
## 6  2006 64148. 465242.
## 7  2007 66594  435270.
## 8  2008 66463. 401131.
## # … with 9 more rows
```
…
.pull-right5[

```r
basel %>%
  
  # Calculate averages for all years
  group_by(year) %>% 
  summarize(
    income = mean(income_mean),
    wealth = mean(wealth_mean)) %>% 
  arrange(income) 
```

```
## # A tibble: 17 × 3
##    year income  wealth
##   <dbl>  <dbl>   <dbl>
## 1  2004 62298. 353968.
## 2  2001 63027. 347770.
## 3  2003 63083. 373278.
## 4  2005 63133. 441864.
## 5  2002 63555. 367401.
## 6  2006 64148. 465242.
## 7  2011 66050. 398102.
## 8  2008 66463. 401131.
## # … with 9 more rows
```
…
<br>

```r
basel %>%
  group_by(year) %>% 
  summarize(
    income = mean(income_mean),
    wealth = mean(wealth_mean)) %>% 
  
  # join back to basel
  right_join(basel)
```

```
## # A tibble: 357 × 12
##    year income  wealth quarter     
##   <dbl>  <dbl>   <dbl> <chr>       
## 1  2001 63027. 347770. Altstadt Gr…
## 2  2001 63027. 347770. Vorstädte   
## 3  2001 63027. 347770. Am Ring     
## 4  2001 63027. 347770. Breite      
## 5  2001 63027. 347770. St. Alban   
## 6  2001 63027. 347770. Gundeldingen
## 7  2001 63027. 347770. Bruderholz  
## 8  2001 63027. 347770. Bachletten  
## # … with 349 more rows, and 8 more
## #   variables: quarter_no <dbl>,
## #   N <dbl>, income_mean <dbl>,
## #   income_median <dbl>,
## #   income_gini <dbl>,
## #   wealth_mean <dbl>, …
```
…
.pull-right5[

```r
# wide to long
basel %>% 
 select(year, quarter, 
        income_mean, wealth_mean) %>% 
 pivot_longer(cols = c(income_mean, wealth_mean),
              names_to = 'name',
              values_to = 'value')
```

```
## # A tibble: 714 × 4
##    year quarter        name   value
##   <dbl> <chr>          <chr>  <dbl>
## 1  2001 Altstadt Gros… inco… 8.78e4
## 2  2001 Altstadt Gros… weal… 1.01e6
## 3  2001 Vorstädte      inco… 8.41e4
## 4  2001 Vorstädte      weal… 1.12e6
## 5  2001 Am Ring        inco… 6.26e4
## 6  2001 Am Ring        weal… 3.01e5
## 7  2001 Breite         inco… 5.20e4
## 8  2001 Breite         weal… 1.05e5
## # … with 706 more rows
```
…
