Styling
…
# show data
basel_order
```

]

.pull-right45[

<br><br><br>

```
# A tibble: 357 × 10
    year quarter        quarter_no     N
   <dbl> <fct>               <dbl> <dbl>
 1  2001 Altstadt Klei…         12  1659
 2  2001 Clara                  13  2416
 3  2001 Matthäus               17  9089
 4  2001 Rosental               16  2499
 5  2001 Klybeck                18  4053
 6  2001 St. Johann             11 10493
 7  2001 Kleinhüningen          19  1363
 8  2001 Iselin                 10  9853
 9  2001 Gundeldingen            6 11224
10  2001 Breite                  4  5433
# ℹ 347 more rows
# ℹ 6 more variables:
#   income_mean <dbl>,
#   income_median <dbl>,
#   income_gini <dbl>,
#   wealth_mean <dbl>,
#   wealth_median <dbl>, …
```
…
  # remove grouping
  ungroup()

# show data
basel_agg
```

]

.pull-right45[

```
# A tibble: 34 × 3
    year hi    income
   <dbl> <lgl>  <dbl>
 1  2001 FALSE 43813 
 2  2001 TRUE  55790.
 3  2002 FALSE 44467.
 4  2002 TRUE  56225 
 5  2003 FALSE 43926.
 6  2003 TRUE  56088.
 7  2004 FALSE 43518.
 8  2004 TRUE  56011 
 9  2005 FALSE 43028.
10  2005 TRUE  55973.
# ℹ 24 more rows
```
…
  # group by year and quarter
  group_by(year, 
           hi = inc01 > median(inc01)) %>% 
  summarize(inc_m = mean(income_median),
            inc_ci = ci(income_median)) 
```

]

.pull-right45[

<br><br><br><br>

```
# A tibble: 34 × 4
    year hi     inc_m inc_ci
   <dbl> <lgl>  <dbl>  <dbl>
 1  2001 FALSE 43813   1747.
 2  2001 TRUE  55790.  4435.
 3  2002 FALSE 44467.  1673.
 4  2002 TRUE  56225   4309.
 5  2003 FALSE 43926.  1922.
 6  2003 TRUE  56088.  4311.
 7  2004 FALSE 43518.  1853.
 8  2004 TRUE  56011   4658.
 9  2005 FALSE 43028.  2176.
10  2005 TRUE  55973.  4549.
# ℹ 24 more rows
```
…
