maps & nets
…
---

# <mono>sf</mono>

```r
read_sf('1_Data/quarters') 
```

```
Simple feature collection with 21 features and 5 fields
Geometry type: POLYGON
Dimension:     XY
Bounding box:  xmin: 2609000 ymin: 1263000 xmax: 2619000 ymax: 1272000
Projected CRS: CH1903+ / LV95
# A tibble: 21 × 6
   OBJID OBJECTID TXT   ZTXT  TYPE                                                          geometry
   <chr>    <dbl> <chr> <chr> <chr>                                                    <POLYGON [m]>
 1 17136        1 7     07    Bruderholz   ((2612556 1264548, 2612561 1264514, 2612565 1264482, 261…
 2 17139        2 6     06    Gundeldingen ((2610887 1266551, 2610896 1266546, 2610918 1266533, 261…
 3 17142        3 5     05    St. Alban    ((2612942 1267023, 2613000 1267019, 2613027 1267020, 261…
 4 17145        4 4     04    Breite       ((2613684 1266891, 2613686 1266889, 2613689 1266887, 261…
 5 17148        5 8     08    Bachletten   ((2610561 1266791, 2610571 1266781, 2610595 1266757, 261…
 6 17151        6 2     02    Vorstädte    ((2610928 1268323, 2610934 1268293, 2610947 1268297, 261…
 7 17154        7 1     01    Altstadt Gr… ((2611366 1267578, 2611375 1267568, 2611376 1267569, 261…
 8 17157        8 3     03    Am Ring      ((2610705 1267923, 2610680 1267844, 2610647 1267740, 261…
 9 17160        9 9     09    Gotthelf     ((2609245 1266802, 2609236 1266801, 2609366 1267143, 260…
10 17163       10 10    10    Iselin       ((2610234 1267656, 2610284 1267389, 2610234 1267403, 261…
# … with 11 more rows
```
…
  # limit to strong edges
  filter(weight < 1, weight > .5)
```

]

.pull-right45[

```
# A tibble: 184 × 3
   from                to                  weight
   <chr>               <chr>                <dbl>
 1 Am Ring             Altstadt Grossbasel  0.523
 2 Bachletten          Altstadt Grossbasel  0.558
 3 Am Ring             Vorstädte            0.881
 4 St. Alban           Vorstädte            0.806
 5 Gundeldingen        Vorstädte            0.721
 6 Bruderholz          Vorstädte            0.605
 7 Bachletten          Vorstädte            0.770
 8 Gotthelf            Vorstädte            0.872
 9 Altstadt Kleinbasel Vorstädte            0.560
10 Wettstein           Vorstädte            0.917
# … with 174 more rows
```
…
